{
    "android": {
        "name": "Android",
        "text": "Diese Apps kannst du für Android nutzen, um dem Matrix Netzwerk beizutreten.",
        "clients": [
            {
                "name": "Element",
                "text": "Standard-Client mit allen Funktionen und modernem Design.",
                "imageUrl": "/img/element.svg",
                "download": "https://play.google.com/store/apps/details?id=im.vector.app"
            },
            {
                "name": "FluffyChat",
                "text": "Moderner Client mit einem Telegram und WhatsApp ähnlichem Design",
                "imageUrl": "/img/fluffychat.png",
                "download": "https://play.google.com/store/apps/details?id=chat.fluffy.fluffychat"
            },
            {
                "name": "SchildiChat",
                "text": "Stammt von Element ab, ähnelt jedoch im Design bekannten Messengern. Nicht über den PlayStore verfügbar.",
                "imageUrl": "/img/schildichat.svg",
                "download": "https://schildi.chat/android/"
            }
        ]
    },
    "ios": {
        "name": "iOS",
        "text": "Diese Apps kannst du auf deinem IPhone nutzen, um dem Matrix Netzwerk beizutreten.",
        "clients": [
            {
                "name": "Element",
                "text": "Standard-Client mit allen Funktionen und modernem Design.",
                "imageUrl": "/img/element.svg",
                "download": "https://apps.apple.com/app/vector/id1083446067"
            },
            {
                "name": "FluffyChat",
                "text": "Moderner Client mit einem Telegram und WhatsApp ähnlichem Design",
                "imageUrl": "/img/fluffychat.png",
                "download": "https://apps.apple.com/app/fluffychat/id1551469600"
            }
        ]
    },
    "windows": {
        "name": "Windows",
        "text": "Diese Apps kannst du unter Windows nutzen um dem Matrix Netzwerk beizutreten.",
        "clients": [
            {
                "name": "Element",
                "text": "Standard-Client mit allen Funktionen und modernem Design.",
                "imageUrl": "/img/element.svg",
                "download": "https://element.io/get-started"
            },
            {
                "name": "FluffyChat",
                "text": "Moderner Client mit einem Telegram und WhatsApp ähnlichem Design",
                "imageUrl": "/img/fluffychat.png",
                "download": "https://fluffychat.im/de/"
            },
            {
                "name": "SchildiChat",
                "text": "Stammt von Element ab, ähnelt jedoch im Design bekannten Messengern.",
                "imageUrl": "/img/schildichat.svg",
                "download": "https://schildi.chat/desktop/"
            },
            {
                "name": "nheko",
                "text": "Resourcensparsamer Client welcher die meisten Funktionen unterstützt ",
                "imageUrl": "/img/nheko.png",
                "download": "https://nheko-reborn.github.io/"
            }
        ]
    },
    "linux": {
        "name": "Linux",
        "text": "Diese Apps kannst du unter Linux nutzen um dem Matrix Netzwerk beizutreten.",
        "clients": [
            {
                "name": "Element",
                "text": "Standard-Client mit allen Funktionen und modernem Design.",
                "imageUrl": "/img/element.svg",
                "download": "https://element.io/get-started"
            },
            {
                "name": "FluffyChat",
                "text": "Moderner Client mit einem Telegram und WhatsApp ähnlichem Design",
                "imageUrl": "/img/fluffychat.png",
                "download": "https://fluffychat.im/de/"
            },
            {
                "name": "SchildiChat",
                "text": "Stammt von Element ab, ähnelt jedoch im Design bekannten Messengern.",
                "imageUrl": "/img/schildichat.svg",
                "download": "https://schildi.chat/desktop/"
            },
            {
                "name": "nheko",
                "text": "Resourcensparsamer Client welcher die meisten Funktionen unterstützt ",
                "imageUrl": "/img/nheko.png",
                "download": "https://nheko-reborn.github.io/"
            }
        ]
    },
    "macos": {
        "name": "macOS",
        "text": "Diese Apps kannst du unter macOS nutzen um dem Matrix Netzwerk beizutreten.",
        "clients": [
            {
                "name": "Element",
                "text": "Standard-Client mit allen Funktionen und modernem Design.",
                "imageUrl": "/img/element.svg",
                "download": "https://element.io/get-started"
            },
            {
                "name": "FluffyChat",
                "text": "Moderner Client mit einem Telegram und WhatsApp ähnlichem Design",
                "imageUrl": "/img/fluffychat.png",
                "download": "https://fluffychat.im/de/"
            },
            {
                "name": "SchildiChat",
                "text": "Stammt von Element ab, ähnelt jedoch im Design bekannten Messengern.",
                "imageUrl": "/img/schildichat.svg",
                "download": "https://schildi.chat/desktop/"
            },
            {
                "name": "nheko",
                "text": "Resourcensparsamer Client welcher die meisten Funktionen unterstützt ",
                "imageUrl": "/img/nheko.png",
                "download": "https://nheko-reborn.github.io/"
            }
        ]
    },
    "web": {
        "name": "den Browser",
        "text": "Diese Apps kannst du direkt im Browser nutzen um dem Matrix Netzwerk beizutreten.",
        "clients": [
            {
                "name": "Element",
                "text": "Standard-Client mit allen Funktionen und modernem Design.",
                "imageUrl": "/img/element.svg",
                "download": "https://element.fff.chat/"
            },
            {
                "name": "FluffyChat",
                "text": "Moderner Client mit einem Telegram und WhatsApp ähnlichem Design",
                "imageUrl": "/img/fluffychat.png",
                "download": "https://fluffychat.im/web/"
            },
            {
                "name": "SchildiChat",
                "text": "Stammt von Element ab, ähnelt jedoch im Design bekannten Messengern.",
                "imageUrl": "/img/schildichat.svg",
                "download": "https://app.schildi.chat/"
            }
        ]
    }
}